<?xml version="1.0" encoding="UTF-8" standalone="no"?>
<graphml xmlns="http://graphml.graphdrawing.org/xmlns" xmlns:java="http://www.yworks.com/xml/yfiles-common/1.0/java" xmlns:sys="http://www.yworks.com/xml/yfiles-common/markup/primitives/2.0" xmlns:x="http://www.yworks.com/xml/yfiles-common/markup/2.0" xmlns:xsi="http://www.w3.org/2001/XMLSchema-instance" xmlns:y="http://www.yworks.com/xml/graphml" xmlns:yed="http://www.yworks.com/xml/yed/3" xsi:schemaLocation="http://graphml.graphdrawing.org/xmlns http://www.yworks.com/xml/schema/graphml/1.1/ygraphml.xsd">
  <!--Created by yEd 3.17-->
  <key attr.name="Description" attr.type="string" for="graph" id="d0"/>
  <key for="port" id="d1" yfiles.type="portgraphics"/>
  <key for="port" id="d2" yfiles.type="portgeometry"/>
  <key for="port" id="d3" yfiles.type="portuserdata"/>
  <key attr.name="url" attr.type="string" for="node" id="d4"/>
  <key attr.name="description" attr.type="string" for="node" id="d5"/>
  <key for="node" id="d6" yfiles.type="nodegraphics"/>
  <key for="graphml" id="d7" yfiles.type="resources"/>
  <key attr.name="url" attr.type="string" for="edge" id="d8"/>
  <key attr.name="description" attr.type="string" for="edge" id="d9"/>
  <key for="edge" id="d10" yfiles.type="edgegraphics"/>
  <graph edgedefault="directed" id="G">
    <data key="d0"/>
    <node id="n0">
      <data key="d4"/>
      <data key="d6">
        <y:ShapeNode>
          <y:Geometry height="478.71438045801546" width="695.8224644967609" x="476.41712448901944" y="137.2136633210101"/>
          <y:Fill hasColor="false" transparent="false"/>
          <y:BorderStyle color="#000000" type="dashed" width="1.0"/>
          <y:NodeLabel alignment="center" autoSizePolicy="content" fontFamily="Dialog" fontSize="14" fontStyle="bold" hasBackgroundColor="false" hasLineColor="false" height="21.1513671875" horizontalTextPosition="center" iconTextGap="4" modelName="internal" modelPosition="tl" textColor="#000000" verticalTextPosition="bottom" visible="true" width="102.779296875" x="4.0" y="4.0">Administration</y:NodeLabel>
          <y:Shape type="rectangle"/>
        </y:ShapeNode>
      </data>
    </node>
    <node id="n1">
      <data key="d4"><![CDATA[http://tango-controls.readthedocs.io/en/latest/tools-and-extensions/astor/index.html]]></data>
      <data key="d5"><![CDATA[Astor's first goal is to know at a quick glance, if everything is OK in a control system,
and otherwise to be able to diagnose a problem and solve it.
The second goal is to configure the control system and its components.
The third goal is to have long term analysis on components (logs, statistics, usage,....).
It is relying on the starter devices.]]></data>
      <data key="d6">
        <y:ShapeNode>
          <y:Geometry height="29.28000000000003" width="172.1908678067868" x="485.37553969198507" y="339.72395706146915"/>
          <y:Fill color="#00FFCC" transparent="false"/>
          <y:BorderStyle color="#000000" type="line" width="1.0"/>
          <y:NodeLabel alignment="center" autoSizePolicy="content" fontFamily="Dialog" fontSize="14" fontStyle="bold" hasBackgroundColor="false" hasLineColor="false" height="21.1513671875" horizontalTextPosition="center" iconTextGap="4" modelName="custom" textColor="#000000" verticalTextPosition="bottom" visible="true" width="40.55859375" x="65.81613702839343" y="4.064316406249986">Astor<y:LabelModel>
              <y:SmartNodeLabelModel distance="4.0"/>
            </y:LabelModel>
            <y:ModelParameter>
              <y:SmartNodeLabelModelParameter labelRatioX="0.0" labelRatioY="0.0" nodeRatioX="0.0" nodeRatioY="0.0" offsetX="0.0" offsetY="0.0" upX="0.0" upY="-1.0"/>
            </y:ModelParameter>
          </y:NodeLabel>
          <y:Shape type="rectangle"/>
        </y:ShapeNode>
      </data>
    </node>
    <node id="n2">
      <data key="d4"><![CDATA[http://tango-controls.readthedocs.io/en/latest/development/device-api/device-server-model.html#the-database]]></data>
      <data key="d5"><![CDATA[To achieve complete device independence, it is necessary however to supplement
device classes with a possibility for configuring device dependencies at runtime.
The utility which does this in the TDSOM is the property database. Properties
are identified by an ascii string and the device name. TANGO attributes are also
configured using properties. This database is also used to store device network
addresses (CORBA IOR's), list of classes hosted by a device server process and
list of devices for each class in a device server process. The database ensure
the uniqueness of device name and of alias. TANGO uses MySQL as its database.]]></data>
      <data key="d6">
        <y:ShapeNode>
          <y:Geometry height="29.28000000000003" width="246.43897815126115" x="671.315976891836" y="503.6439570614691"/>
          <y:Fill color="#0099CC" transparent="false"/>
          <y:BorderStyle color="#000000" type="line" width="1.0"/>
          <y:NodeLabel alignment="center" autoSizePolicy="content" fontFamily="Dialog" fontSize="14" fontStyle="bold" hasBackgroundColor="false" hasLineColor="false" height="21.1513671875" horizontalTextPosition="center" iconTextGap="4" modelName="custom" textColor="#FFFFFF" verticalTextPosition="bottom" visible="true" width="112.1376953125" x="67.15064141938058" y="4.064316406249986">Tango Database<y:LabelModel>
              <y:SmartNodeLabelModel distance="4.0"/>
            </y:LabelModel>
            <y:ModelParameter>
              <y:SmartNodeLabelModelParameter labelRatioX="0.0" labelRatioY="0.0" nodeRatioX="0.0" nodeRatioY="0.0" offsetX="0.0" offsetY="0.0" upX="0.0" upY="-1.0"/>
            </y:ModelParameter>
          </y:NodeLabel>
          <y:Shape type="rectangle"/>
        </y:ShapeNode>
      </data>
    </node>
    <node id="n3">
      <data key="d4"><![CDATA[http://www.esrf.eu/computing/cs/tango/tango_doc/kernel_doc/ds_prog/node7.html#SECTION007100000000000000000]]></data>
      <data key="d5"><![CDATA[A high level object which contains the link to the database. It has methods for
all database commands e.g. get_device_property(), device_list(), info(), etc. ]]></data>
      <data key="d6">
        <y:ShapeNode>
          <y:Geometry height="29.28000000000003" width="246.7551200146575" x="670.9998350284397" y="339.72395706146915"/>
          <y:Fill color="#0099CC" transparent="false"/>
          <y:BorderStyle color="#000000" type="line" width="1.0"/>
          <y:NodeLabel alignment="center" autoSizePolicy="content" fontFamily="Dialog" fontSize="14" fontStyle="bold" hasBackgroundColor="false" hasLineColor="false" height="21.1513671875" horizontalTextPosition="center" iconTextGap="4" modelName="custom" textColor="#FFFFFF" verticalTextPosition="bottom" visible="true" width="238.978515625" x="3.888302194828725" y="4.064316406249986">Database API (C++, Java, PyTango)<y:LabelModel>
              <y:SmartNodeLabelModel distance="4.0"/>
            </y:LabelModel>
            <y:ModelParameter>
              <y:SmartNodeLabelModelParameter labelRatioX="0.0" labelRatioY="0.0" nodeRatioX="0.0" nodeRatioY="0.0" offsetX="0.0" offsetY="0.0" upX="0.0" upY="-1.0"/>
            </y:ModelParameter>
          </y:NodeLabel>
          <y:Shape type="rectangle"/>
        </y:ShapeNode>
      </data>
    </node>
    <node id="n4">
      <data key="d4"><![CDATA[http://tango-controls.readthedocs.io/en/latest/development/client-api/index.html]]></data>
      <data key="d5"><![CDATA[TANGO devices and database are implemented using the TANGO device server model.
To access them the user has the CORBA interface e.g. command_inout(),
write_attributes() etc. defined by the idl file. These methods are very
low-level and assume a good working knowledge of CORBA. In order to simplify
this access, high-level api in C++, Python and Java have been implemented which
hides all CORBA aspects of TANGO.]]></data>
      <data key="d6">
        <y:ShapeNode>
          <y:Geometry height="29.28000000000003" width="678.3132054627627" x="485.37553969198507" y="385.08395706146905"/>
          <y:Fill color="#0099CCE6" transparent="false"/>
          <y:BorderStyle color="#000000" type="line" width="1.0"/>
          <y:NodeLabel alignment="center" autoSizePolicy="content" fontFamily="Dialog" fontSize="14" fontStyle="bold" hasBackgroundColor="false" hasLineColor="false" height="21.1513671875" horizontalTextPosition="center" iconTextGap="4" modelName="custom" textColor="#FFFFFF" verticalTextPosition="bottom" visible="true" width="221.8681640625" x="228.22252070013133" y="4.064316406249986">Device API (C++, Java, PyTango)<y:LabelModel>
              <y:SmartNodeLabelModel distance="4.0"/>
            </y:LabelModel>
            <y:ModelParameter>
              <y:SmartNodeLabelModelParameter labelRatioX="0.0" labelRatioY="0.0" nodeRatioX="0.0" nodeRatioY="0.0" offsetX="0.0" offsetY="0.0" upX="0.0" upY="-1.0"/>
            </y:ModelParameter>
          </y:NodeLabel>
          <y:Shape type="rectangle"/>
        </y:ShapeNode>
      </data>
    </node>
    <node id="n5">
      <data key="d4"><![CDATA[http://tango-controls.readthedocs.io/en/latest/development/device-api/device-server-model.html#the-tango-logging-service]]></data>
      <data key="d5"><![CDATA[The TANGO Logging Service (TLS) gives the user the control over how much
information is actually generated and to where it goes. In practice, the
TLS allows to select both the logging level and targets of any device within
the control system. ]]></data>
      <data key="d6">
        <y:ShapeNode>
          <y:Geometry height="29.279999999999916" width="232.18422071858618" x="931.5045244361614" y="504.1488804202488"/>
          <y:Fill color="#0099CCE6" transparent="false"/>
          <y:BorderStyle color="#000000" type="line" width="1.0"/>
          <y:NodeLabel alignment="center" autoSizePolicy="content" fontFamily="Dialog" fontSize="14" fontStyle="bold" hasBackgroundColor="false" hasLineColor="false" height="21.1513671875" horizontalTextPosition="center" iconTextGap="4" modelName="custom" textColor="#FFFFFF" verticalTextPosition="bottom" visible="true" width="158.79296875" x="36.69562598429309" y="4.064316406249986">Tango Logging Service<y:LabelModel>
              <y:SmartNodeLabelModel distance="4.0"/>
            </y:LabelModel>
            <y:ModelParameter>
              <y:SmartNodeLabelModelParameter labelRatioX="0.0" labelRatioY="0.0" nodeRatioX="0.0" nodeRatioY="0.0" offsetX="0.0" offsetY="0.0" upX="0.0" upY="-1.0"/>
            </y:ModelParameter>
          </y:NodeLabel>
          <y:Shape type="rectangle"/>
        </y:ShapeNode>
      </data>
    </node>
    <node id="n6">
      <data key="d4"><![CDATA[http://tango-controls.readthedocs.io/en/latest/development/advanced/reference.html#tango-log-consumer]]></data>
      <data key="d5"><![CDATA[A Tango Log Consumer device is nothing but a tango device supporting the
following tango command: void log (Tango::DevVarStringArray details) ]]></data>
      <data key="d6">
        <y:ShapeNode>
          <y:Geometry height="29.28000000000003" width="232.18422071858618" x="931.5045244361614" y="474.1488804202488"/>
          <y:Fill color="#00FFCC" transparent="false"/>
          <y:BorderStyle color="#000000" type="line" width="1.0"/>
          <y:NodeLabel alignment="center" autoSizePolicy="content" fontFamily="Dialog" fontSize="14" fontStyle="bold" hasBackgroundColor="false" hasLineColor="false" height="21.1513671875" horizontalTextPosition="center" iconTextGap="4" modelName="custom" textColor="#000000" verticalTextPosition="bottom" visible="true" width="168.923828125" x="31.630196296793088" y="4.064316406249986">Log Consumer Device(s)<y:LabelModel>
              <y:SmartNodeLabelModel distance="4.0"/>
            </y:LabelModel>
            <y:ModelParameter>
              <y:SmartNodeLabelModelParameter labelRatioX="0.0" labelRatioY="0.0" nodeRatioX="0.0" nodeRatioY="0.0" offsetX="0.0" offsetY="0.0" upX="0.0" upY="-1.0"/>
            </y:ModelParameter>
          </y:NodeLabel>
          <y:Shape type="rectangle"/>
        </y:ShapeNode>
      </data>
    </node>
    <node id="n7">
      <data key="d4"><![CDATA[http://tango-controls.readthedocs.io/en/latest/development/advanced/reference.html#tango-log-consumer]]></data>
      <data key="d5"><![CDATA[One implementation of a log consumer associated to a graphical user interface is
 available within Tango. It is a standalone java application called LogViewer
 based on the publicly available chainsaw application from the log4j package.]]></data>
      <data key="d6">
        <y:ShapeNode>
          <y:Geometry height="29.28000000000003" width="232.50036258198247" x="931.1883825727651" y="339.72395706146915"/>
          <y:Fill color="#00FFCC" transparent="false"/>
          <y:BorderStyle color="#000000" type="line" width="1.0"/>
          <y:NodeLabel alignment="center" autoSizePolicy="content" fontFamily="Dialog" fontSize="14" fontStyle="bold" hasBackgroundColor="false" hasLineColor="false" height="21.1513671875" horizontalTextPosition="center" iconTextGap="4" modelName="custom" textColor="#000000" verticalTextPosition="bottom" visible="true" width="74.79296875" x="78.85369691599124" y="4.064316406249986">LogViewer<y:LabelModel>
              <y:SmartNodeLabelModel distance="4.0"/>
            </y:LabelModel>
            <y:ModelParameter>
              <y:SmartNodeLabelModelParameter labelRatioX="0.0" labelRatioY="0.0" nodeRatioX="0.0" nodeRatioY="0.0" offsetX="0.0" offsetY="0.0" upX="0.0" upY="-1.0"/>
            </y:ModelParameter>
          </y:NodeLabel>
          <y:Shape type="rectangle"/>
        </y:ShapeNode>
      </data>
    </node>
    <node id="n8">
      <data key="d4"><![CDATA[http://tango-controls.readthedocs.io/en/latest/tools-and-extensions/jive/index.html]]></data>
      <data key="d5"><![CDATA[JIVE is a standalone JAVA application designed to browse and edit the TANGO database.
Jive also offers advanced search/selection features.
]]></data>
      <data key="d6">
        <y:ShapeNode>
          <y:Geometry height="29.28000000000003" width="246.75512001465745" x="670.9998350284397" y="294.36395706146925"/>
          <y:Fill color="#00FFCC" transparent="false"/>
          <y:BorderStyle color="#000000" type="line" width="1.0"/>
          <y:NodeLabel alignment="center" autoSizePolicy="content" fontFamily="Dialog" fontSize="14" fontStyle="bold" hasBackgroundColor="false" hasLineColor="false" height="21.1513671875" horizontalTextPosition="center" iconTextGap="4" modelName="custom" textColor="#000000" verticalTextPosition="bottom" visible="true" width="31.248046875" x="107.75353656982873" y="4.064316406249986">Jive<y:LabelModel>
              <y:SmartNodeLabelModel distance="4.0"/>
            </y:LabelModel>
            <y:ModelParameter>
              <y:SmartNodeLabelModelParameter labelRatioX="0.0" labelRatioY="0.0" nodeRatioX="0.0" nodeRatioY="0.0" offsetX="0.0" offsetY="0.0" upX="0.0" upY="-1.0"/>
            </y:ModelParameter>
          </y:NodeLabel>
          <y:Shape type="rectangle"/>
        </y:ShapeNode>
      </data>
    </node>
    <node id="n9">
      <data key="d4"><![CDATA[http://tango-controls.readthedocs.io/en/latest/development/device-api/device-server-model.html#deviceservermodel]]></data>
      <data key="d5"><![CDATA[In order to simplify device server process administration, a device of the
DServer class is automatically added to each device server process. Thus, every
device server process supports the same set of administration commands. The
implementation of this DServer class follows the device pattern and therefore,
its device behaves like any other devices. The device name is:
dserver/device server executable name/device server instance name ]]></data>
      <data key="d6">
        <y:ShapeNode>
          <y:Geometry height="29.28000000000003" width="678.3132054627627" x="485.37553969198507" y="443.6439570614692"/>
          <y:Fill color="#0099CCE6" transparent="false"/>
          <y:BorderStyle color="#000000" type="line" width="1.0"/>
          <y:NodeLabel alignment="center" autoSizePolicy="content" fontFamily="Dialog" fontSize="14" fontStyle="bold" hasBackgroundColor="false" hasLineColor="false" height="21.1513671875" horizontalTextPosition="center" iconTextGap="4" modelName="custom" textColor="#FFFFFF" verticalTextPosition="bottom" visible="true" width="123.84765625" x="277.2327746063813" y="4.064316406249986">DServer Device(s)<y:LabelModel>
              <y:SmartNodeLabelModel distance="4.0"/>
            </y:LabelModel>
            <y:ModelParameter>
              <y:SmartNodeLabelModelParameter labelRatioX="0.0" labelRatioY="0.0" nodeRatioX="0.0" nodeRatioY="0.0" offsetX="0.0" offsetY="0.0" upX="0.0" upY="-1.0"/>
            </y:ModelParameter>
          </y:NodeLabel>
          <y:Shape type="rectangle"/>
        </y:ShapeNode>
      </data>
    </node>
    <node id="n10">
      <data key="d4"/>
      <data key="d5"><![CDATA[Clients access the database via TANGO commands requested on the database device. ]]></data>
      <data key="d6">
        <y:ShapeNode>
          <y:Geometry height="29.28000000000003" width="246.43897815126104" x="671.315976891836" y="473.6439570614691"/>
          <y:Fill color="#CC3300" transparent="false"/>
          <y:BorderStyle color="#000000" type="line" width="1.0"/>
          <y:NodeLabel alignment="center" autoSizePolicy="content" fontFamily="Dialog" fontSize="14" fontStyle="bold" hasBackgroundColor="false" hasLineColor="false" height="21.1513671875" horizontalTextPosition="center" iconTextGap="4" modelName="custom" textColor="#FFFFFF" verticalTextPosition="bottom" visible="true" width="161.171875" x="42.63355157563046" y="4.064316406249986">Tango Database Device<y:LabelModel>
              <y:SmartNodeLabelModel distance="4.0"/>
            </y:LabelModel>
            <y:ModelParameter>
              <y:SmartNodeLabelModelParameter labelRatioX="0.0" labelRatioY="0.0" nodeRatioX="0.0" nodeRatioY="0.0" offsetX="0.0" offsetY="0.0" upX="0.0" upY="-1.0"/>
            </y:ModelParameter>
          </y:NodeLabel>
          <y:Shape type="rectangle"/>
        </y:ShapeNode>
      </data>
    </node>
    <node id="n11">
      <data key="d4"><![CDATA[http://tango-controls.readthedocs.io/en/latest/development/device-api/device-server-model.html#introduction-to-corba]]></data>
      <data key="d6">
        <y:ShapeNode>
          <y:Geometry height="29.28000000000003" width="678.3132054627627" x="485.37553969198507" y="414.36395706146914"/>
          <y:Fill color="#0099CCE6" transparent="false"/>
          <y:BorderStyle color="#000000" type="line" width="1.0"/>
          <y:NodeLabel alignment="center" autoSizePolicy="content" fontFamily="Dialog" fontSize="14" fontStyle="bold" hasBackgroundColor="false" hasLineColor="false" height="21.1513671875" horizontalTextPosition="center" iconTextGap="4" modelName="custom" textColor="#FFFFFF" verticalTextPosition="bottom" visible="true" width="258.3447265625" x="209.98423945013133" y="4.064316406249986">Communication Layer (CORBA / ZMQ)<y:LabelModel>
              <y:SmartNodeLabelModel distance="4.0"/>
            </y:LabelModel>
            <y:ModelParameter>
              <y:SmartNodeLabelModelParameter labelRatioX="0.0" labelRatioY="0.0" nodeRatioX="0.0" nodeRatioY="0.0" offsetX="0.0" offsetY="0.0" upX="0.0" upY="-1.0"/>
            </y:ModelParameter>
          </y:NodeLabel>
          <y:Shape type="rectangle"/>
        </y:ShapeNode>
      </data>
    </node>
    <node id="n12">
      <data key="d4"><![CDATA[http://tango-controls.readthedocs.io/en/latest/tutorials-and-howtos/how-tos/how-to-fandango.html]]></data>
      <data key="d5"><![CDATA[Fandango (previously called PyTango_utils) is a Python module created to simplify the configuration of big control systems;
implementing the behavior of Jive (configuration) and/or Astor (deployment) tools in methods that could be called from scripts using regexp and wildcards.
It has been later extended with methods commonly used in some of our python API's (archiving, CCDB, alarms, vacca) or generic devices (composers, simulators, facades).
]]></data>
      <data key="d6">
        <y:ShapeNode>
          <y:Geometry height="29.28000000000003" width="432.37941535111224" x="485.37553969198507" y="203.6439570614692"/>
          <y:Fill color="#FFCC00" transparent="false"/>
          <y:BorderStyle color="#000000" type="line" width="1.0"/>
          <y:NodeLabel alignment="center" autoSizePolicy="content" fontFamily="Dialog" fontSize="14" fontStyle="bold" hasBackgroundColor="false" hasLineColor="false" height="21.1513671875" horizontalTextPosition="center" iconTextGap="4" modelName="custom" textColor="#000000" verticalTextPosition="bottom" visible="true" width="66.9931640625" x="182.69312564430606" y="4.064316406250015">fandango<y:LabelModel>
              <y:SmartNodeLabelModel distance="4.0"/>
            </y:LabelModel>
            <y:ModelParameter>
              <y:SmartNodeLabelModelParameter labelRatioX="0.0" labelRatioY="0.0" nodeRatioX="0.0" nodeRatioY="0.0" offsetX="0.0" offsetY="0.0" upX="0.0" upY="-1.0"/>
            </y:ModelParameter>
          </y:NodeLabel>
          <y:Shape type="rectangle"/>
        </y:ShapeNode>
      </data>
    </node>
    <node id="n13">
      <data key="d4"/>
      <data key="d5"><![CDATA[configuration management tool for an ELI-ALPS equipment (equipment, beamdelivery, etc.).
The CSV files hold device names, hierarchy and attribute property values; which are
used for automatically registering devices in the Tango Database.]]></data>
      <data key="d6">
        <y:ShapeNode>
          <y:Geometry height="29.28000000000003" width="246.43897815126115" x="671.1579059601379" y="249.0039570614692"/>
          <y:Fill color="#FFCC00" transparent="false"/>
          <y:BorderStyle color="#000000" type="line" width="1.0"/>
          <y:NodeLabel alignment="center" autoSizePolicy="content" fontFamily="Dialog" fontSize="14" fontStyle="bold" hasBackgroundColor="false" hasLineColor="false" height="21.1513671875" horizontalTextPosition="center" iconTextGap="4" modelName="custom" textColor="#000000" verticalTextPosition="bottom" visible="true" width="89.572265625" x="78.43335626313058" y="4.064316406250015">CSV Updater<y:LabelModel>
              <y:SmartNodeLabelModel distance="4.0"/>
            </y:LabelModel>
            <y:ModelParameter>
              <y:SmartNodeLabelModelParameter labelRatioX="0.0" labelRatioY="0.0" nodeRatioX="0.0" nodeRatioY="0.0" offsetX="0.0" offsetY="0.0" upX="0.0" upY="-1.0"/>
            </y:ModelParameter>
          </y:NodeLabel>
          <y:Shape type="rectangle"/>
        </y:ShapeNode>
      </data>
    </node>
    <node id="n14">
      <data key="d4"><![CDATA[https://indico.cern.ch/event/233494/contributions/497847/attachments/389318/541501/Maintenance_Workshop_Presentation_at_Cern_vd.pdf#page=12]]></data>
      <data key="d5"><![CDATA[The Cabling and Controls DataBase (CCDB) is part of the ALBA control system. It has the following:
•Equipments, connectors and cable types
•Instances of equipments and cables (naming conventions)
•Documentation files
•Installation logs
•Source for automatic code generation and creation of
Tango devices]]></data>
      <data key="d6">
        <y:ShapeNode>
          <y:Geometry height="29.28000000000003" width="246.49738732146443" x="671.0994967899348" y="158.28395706146918"/>
          <y:Fill color="#FFCC00" transparent="false"/>
          <y:BorderStyle color="#000000" type="line" width="1.0"/>
          <y:NodeLabel alignment="center" autoSizePolicy="content" fontFamily="Dialog" fontSize="14" fontStyle="bold" hasBackgroundColor="false" hasLineColor="false" height="21.1513671875" horizontalTextPosition="center" iconTextGap="4" modelName="custom" textColor="#000000" verticalTextPosition="bottom" visible="true" width="44.44140625" x="101.02799053573221" y="4.064316406250015">CCDB<y:LabelModel>
              <y:SmartNodeLabelModel distance="4.0"/>
            </y:LabelModel>
            <y:ModelParameter>
              <y:SmartNodeLabelModelParameter labelRatioX="0.0" labelRatioY="0.0" nodeRatioX="0.0" nodeRatioY="0.0" offsetX="0.0" offsetY="0.0" upX="0.0" upY="-1.0"/>
            </y:ModelParameter>
          </y:NodeLabel>
          <y:Shape type="rectangle"/>
        </y:ShapeNode>
      </data>
    </node>
    <node id="n15">
      <data key="d4"><![CDATA[http://www.esrf.eu/computing/cs/tango/tango_doc/ds_doc/tango-cs/System/starter/Version.html]]></data>
      <data key="d5"><![CDATA[This device server is able to control Tango components (database, device
servers, clients...). It is able to start or stop and to report the status
of these components.]]></data>
      <data key="d6">
        <y:ShapeNode>
          <y:Geometry height="29.28000000000003" width="172.19086780678674" x="485.37553969198507" y="474.363957061469"/>
          <y:Fill color="#CC3300" transparent="false"/>
          <y:BorderStyle color="#000000" type="line" width="1.0"/>
          <y:NodeLabel alignment="center" autoSizePolicy="content" fontFamily="Dialog" fontSize="14" fontStyle="bold" hasBackgroundColor="false" hasLineColor="false" height="21.1513671875" horizontalTextPosition="center" iconTextGap="4" modelName="custom" textColor="#FFFFFF" verticalTextPosition="bottom" visible="true" width="113.716796875" x="29.237035465893314" y="4.064316406249986">Starter device(s)<y:LabelModel>
              <y:SmartNodeLabelModel distance="4.0"/>
            </y:LabelModel>
            <y:ModelParameter>
              <y:SmartNodeLabelModelParameter labelRatioX="0.0" labelRatioY="0.0" nodeRatioX="0.0" nodeRatioY="0.0" offsetX="0.0" offsetY="0.0" upX="0.0" upY="-1.0"/>
            </y:ModelParameter>
          </y:NodeLabel>
          <y:Shape type="rectangle"/>
        </y:ShapeNode>
      </data>
    </node>
  </graph>
  <data key="d7">
    <y:Resources/>
  </data>
</graphml>
